…
2. How many genera and species are represented in the data? What are the total number of observations? Which species is most/ least frequently sampled in the study?

```r
deserts%>%
  group_by(genus,species)%>%
  summarize(n=n(),.groups="keep")%>%
  arrange(desc(n))
```

```
## # A tibble: 48 x 3
## # Groups:   genus, species [48]
##    genus           species          n
##    <chr>           <chr>        <int>
##  1 Dipodomys       merriami     10596
##  2 Chaetodipus     penicillatus  3123
##  3 Dipodomys       ordii         3027
##  4 Chaetodipus     baileyi       2891
##  5 Reithrodontomys megalotis     2609
##  6 Dipodomys       spectabilis   2504
##  7 Onychomys       torridus      2249
##  8 Perognathus     flavus        1597
##  9 Peromyscus      eremicus      1299
## 10 Neotoma         albigula      1252
## # ... with 38 more rows
```


```r
deserts%>%
  count(genus,sort=T)
```

```
## # A tibble: 26 x 2
##    genus                n
##    <chr>            <int>
##  1 Dipodomys        16167
##  2 Chaetodipus       6029
##  3 Onychomys         3267
##  4 Reithrodontomys   2694
##  5 Peromyscus        2234
##  6 Perognathus       1629
##  7 Neotoma           1252
##  8 Ammospermophilus   437
##  9 Amphispiza         303
## 10 Spermophilus       249
## # ... with 16 more rows
```



```r
deserts%>%
  count(species,sort=T)
```

```
## # A tibble: 40 x 2
##    species          n
##    <chr>        <int>
##  1 merriami     10596
##  2 penicillatus  3123
##  3 ordii         3027
##  4 baileyi       2891
##  5 megalotis     2609
##  6 spectabilis   2504
##  7 torridus      2249
##  8 flavus        1597
##  9 eremicus      1299
## 10 albigula      1252
## # ... with 30 more rows
```
…
```
## `summarise()` has grouped output by 'species_id'. You can override using the
## `.groups` argument.
```

```r
id_dt
```

```
## # A tibble: 26 x 3
## # Groups:   species_id [1]
##    species_id  year     n
##    <chr>      <dbl> <int>
##  1 DM          1977   264
##  2 DM          1978   389
##  3 DM          1979   209
##  4 DM          1980   493
##  5 DM          1981   559
##  6 DM          1982   609
##  7 DM          1983   528
##  8 DM          1984   396
##  9 DM          1985   667
## 10 DM          1986   406
## # ... with 16 more rows
```
…
9. Which two species have, on average, the highest weight? Once you have identified them, make a new column that is a ratio of `weight` to `hindfoot_length`. Make a plot that shows the range of this new ratio and fill by sex.

```r
deserts%>%
  group_by(species)%>%
  filter(!is.na(weight))%>%
  summarise(weight_mean=mean(weight))%>%
  arrange(desc(weight_mean))
```

```
## # A tibble: 22 x 2
##    species      weight_mean
##    <chr>              <dbl>
##  1 albigula           159. 
##  2 spectabilis        120. 
##  3 spilosoma           93.5
##  4 hispidus            65.6
##  5 fulviventer         58.9
##  6 ochrognathus        55.4
##  7 ordii               48.9
##  8 merriami            43.2
##  9 baileyi             31.7
## 10 leucogaster         31.6
## # ... with 12 more rows
```
…
```r
deserts
```

```
## # A tibble: 34,786 x 13
##    record_id month   day  year plot_id species_id sex   hindfoot_length weight
##        <dbl> <dbl> <dbl> <dbl>   <dbl> <chr>      <chr>           <dbl>  <dbl>
##  1         1     7    16  1977       2 NL         M                  32     NA
##  2         2     7    16  1977       3 NL         M                  33     NA
##  3         3     7    16  1977       2 DM         F                  37     NA
##  4         4     7    16  1977       7 DM         M                  36     NA
##  5         5     7    16  1977       3 DM         M                  35     NA
##  6         6     7    16  1977       1 PF         M                  14     NA
##  7         7     7    16  1977       2 PE         F                  NA     NA
##  8         8     7    16  1977       1 DM         M                  37     NA
##  9         9     7    16  1977       1 DM         F                  34     NA
## 10        10     7    16  1977       6 PF         F                  20     NA
## # ... with 34,776 more rows, and 4 more variables: genus <chr>, species <chr>,
## #   taxa <chr>, plot_type <chr>
```
…
