…
```r
fisheries
```

```
## # A tibble: 17,692 x 71
##    Country `Common name`      `ISSCAAP group#` `ISSCAAP taxon~` `ASFIS species#`
##    <chr>   <chr>                         <dbl> <chr>            <chr>           
##  1 Albania Angelsharks, sand~               38 Sharks, rays, c~ 10903XXXXX      
##  2 Albania Atlantic bonito                  36 Tunas, bonitos,~ 1750100101      
##  3 Albania Barracudas nei                   37 Miscellaneous p~ 17710001XX      
##  4 Albania Blue and red shri~               45 Shrimps, prawns  2280203101      
##  5 Albania Blue whiting(=Pou~               32 Cods, hakes, ha~ 1480403301      
##  6 Albania Bluefish                         37 Miscellaneous p~ 1702021301      
##  7 Albania Bogue                            33 Miscellaneous c~ 1703926101      
##  8 Albania Caramote prawn                   45 Shrimps, prawns  2280100117      
##  9 Albania Catsharks, nurseh~               38 Sharks, rays, c~ 10801003XX      
## 10 Albania Common cuttlefish                57 Squids, cuttlef~ 3210200202      
## # ... with 17,682 more rows, and 66 more variables: `ASFIS species name` <chr>,
## #   `FAO major fishing area` <dbl>, Measure <chr>, `1950` <chr>, `1951` <chr>,
## #   `1952` <chr>, `1953` <chr>, `1954` <chr>, `1955` <chr>, `1956` <chr>,
## #   `1957` <chr>, `1958` <chr>, `1959` <chr>, `1960` <chr>, `1961` <chr>,
## #   `1962` <chr>, `1963` <chr>, `1964` <chr>, `1965` <chr>, `1966` <chr>,
## #   `1967` <chr>, `1968` <chr>, `1969` <chr>, `1970` <chr>, `1971` <chr>,
## #   `1972` <chr>, `1973` <chr>, `1974` <chr>, `1975` <chr>, `1976` <chr>, ...
```
…
fisheries_tidy$catch <- as.numeric(fisheries_tidy$catch)
```


```r
fisheries_tidy
```

```
## # A tibble: 376,771 x 10
##    country common_name        isscaap_group_n~ isscaap_taxonom~ asfis_species_n~
##    <fct>   <chr>              <fct>            <chr>            <fct>           
##  1 Albania Angelsharks, sand~ 38               Sharks, rays, c~ 10903XXXXX      
##  2 Albania Angelsharks, sand~ 38               Sharks, rays, c~ 10903XXXXX      
##  3 Albania Angelsharks, sand~ 38               Sharks, rays, c~ 10903XXXXX      
##  4 Albania Angelsharks, sand~ 38               Sharks, rays, c~ 10903XXXXX      
##  5 Albania Angelsharks, sand~ 38               Sharks, rays, c~ 10903XXXXX      
##  6 Albania Angelsharks, sand~ 38               Sharks, rays, c~ 10903XXXXX      
##  7 Albania Angelsharks, sand~ 38               Sharks, rays, c~ 10903XXXXX      
##  8 Albania Angelsharks, sand~ 38               Sharks, rays, c~ 10903XXXXX      
##  9 Albania Angelsharks, sand~ 38               Sharks, rays, c~ 10903XXXXX      
## 10 Albania Angelsharks, sand~ 38               Sharks, rays, c~ 10903XXXXX      
## # ... with 376,761 more rows, and 5 more variables: asfis_species_name <chr>,
## #   fao_major_fishing_area <fct>, measure <chr>, year <dbl>, catch <dbl>
```



3. How many countries are represented in the data? Provide a count and list their names.

```r
count(fisheries_tidy,country)
```

```
## # A tibble: 203 x 2
##    country                 n
##    <fct>               <int>
##  1 Albania               934
##  2 Algeria              1561
##  3 American Samoa        556
##  4 Angola               2119
##  5 Anguilla              129
##  6 Antigua and Barbuda   356
##  7 Argentina            3403
##  8 Aruba                 172
##  9 Australia            8183
## 10 Bahamas               423
## # ... with 193 more rows
```
…
4. Refocus the data only to include country, isscaap_taxonomic_group, asfis_species_name, asfis_species_number, year, catch.

```r
fisheries_tidy%>%
  select(country,isscaap_taxonomic_group,asfis_species_name,asfis_species_number,year,catch)
```

```
## # A tibble: 376,771 x 6
##    country isscaap_taxonomic_group asfis_species_n~ asfis_species_n~  year catch
##    <fct>   <chr>                   <chr>            <fct>            <dbl> <dbl>
##  1 Albania Sharks, rays, chimaeras Squatinidae      10903XXXXX        1995    NA
##  2 Albania Sharks, rays, chimaeras Squatinidae      10903XXXXX        1996    53
##  3 Albania Sharks, rays, chimaeras Squatinidae      10903XXXXX        1997    20
##  4 Albania Sharks, rays, chimaeras Squatinidae      10903XXXXX        1998    31
##  5 Albania Sharks, rays, chimaeras Squatinidae      10903XXXXX        1999    30
##  6 Albania Sharks, rays, chimaeras Squatinidae      10903XXXXX        2000    30
##  7 Albania Sharks, rays, chimaeras Squatinidae      10903XXXXX        2001    16
##  8 Albania Sharks, rays, chimaeras Squatinidae      10903XXXXX        2002    79
##  9 Albania Sharks, rays, chimaeras Squatinidae      10903XXXXX        2003     1
## 10 Albania Sharks, rays, chimaeras Squatinidae      10903XXXXX        2004     4
## # ... with 376,761 more rows
```

#answer

```r
fisheries_tidy_focused <- fisheries_tidy %>% 
  select(country, isscaap_taxonomic_group, asfis_species_name, asfis_species_number, year, catch)
fisheries_tidy_focused
```

```
## # A tibble: 376,771 x 6
##    country isscaap_taxonomic_group asfis_species_n~ asfis_species_n~  year catch
##    <fct>   <chr>                   <chr>            <fct>            <dbl> <dbl>
##  1 Albania Sharks, rays, chimaeras Squatinidae      10903XXXXX        1995    NA
##  2 Albania Sharks, rays, chimaeras Squatinidae      10903XXXXX        1996    53
##  3 Albania Sharks, rays, chimaeras Squatinidae      10903XXXXX        1997    20
##  4 Albania Sharks, rays, chimaeras Squatinidae      10903XXXXX        1998    31
##  5 Albania Sharks, rays, chimaeras Squatinidae      10903XXXXX        1999    30
##  6 Albania Sharks, rays, chimaeras Squatinidae      10903XXXXX        2000    30
##  7 Albania Sharks, rays, chimaeras Squatinidae      10903XXXXX        2001    16
##  8 Albania Sharks, rays, chimaeras Squatinidae      10903XXXXX        2002    79
##  9 Albania Sharks, rays, chimaeras Squatinidae      10903XXXXX        2003     1
## 10 Albania Sharks, rays, chimaeras Squatinidae      10903XXXXX        2004     4
## # ... with 376,761 more rows
```
…
6. Which country had the largest overall catch in the year 2000?

```r
fisheries_tidy%>%
  filter(year=="2000")%>%
  group_by(country)%>%
  arrange(desc(catch))
```

```
## # A tibble: 8,793 x 10
## # Groups:   country [193]
##    country        common_name isscaap_group_n~ isscaap_taxonom~ asfis_species_n~
##    <fct>          <chr>       <fct>            <chr>            <fct>           
##  1 China          Marine fis~ 39               Marine fishes n~ 199XXXXXXX010   
##  2 Peru           Anchoveta(~ 35               Herrings, sardi~ 1210600208      
##  3 Russian Feder~ Alaska pol~ 32               Cods, hakes, ha~ 1480401601      
##  4 Viet Nam       Marine fis~ 39               Marine fishes n~ 199XXXXXXX010   
##  5 Chile          Chilean ja~ 37               Miscellaneous p~ 1702300405      
##  6 China          Marine mol~ 58               Miscellaneous m~ 399XXXXXXX016   
##  7 China          Largehead ~ 34               Miscellaneous d~ 1750600302      
##  8 United States~ Alaska pol~ 32               Cods, hakes, ha~ 1480401601      
##  9 China          Marine cru~ 47               Miscellaneous m~ 299XXXXXXX013   
## 10 Philippines    Scads nei   37               Miscellaneous p~ 17023043XX      
## # ... with 8,783 more rows, and 5 more variables: asfis_species_name <chr>,
## #   fao_major_fishing_area <fct>, measure <chr>, year <dbl>, catch <dbl>
```

#answer

```r
fisheries_tidy_focused %>% 
  filter(year==2000) %>%
  group_by(country) %>% 
  summarize(catch_total=sum(catch, na.rm=T)) %>% 
  arrange(desc(catch_total))
```

```
## # A tibble: 193 x 2
##    country                  catch_total
##    <fct>                          <dbl>
##  1 China                          25899
##  2 Russian Federation             12181
##  3 United States of America       11762
##  4 Japan                           8510
##  5 Indonesia                       8341
##  6 Peru                            7443
##  7 Chile                           6906
##  8 India                           6351
##  9 Thailand                        6243
## 10 Korea, Republic of              6124
## # ... with 183 more rows
```


```r
fisheries_tidy
```

```
## # A tibble: 376,771 x 10
##    country common_name        isscaap_group_n~ isscaap_taxonom~ asfis_species_n~
##    <fct>   <chr>              <fct>            <chr>            <fct>           
##  1 Albania Angelsharks, sand~ 38               Sharks, rays, c~ 10903XXXXX      
##  2 Albania Angelsharks, sand~ 38               Sharks, rays, c~ 10903XXXXX      
##  3 Albania Angelsharks, sand~ 38               Sharks, rays, c~ 10903XXXXX      
##  4 Albania Angelsharks, sand~ 38               Sharks, rays, c~ 10903XXXXX      
##  5 Albania Angelsharks, sand~ 38               Sharks, rays, c~ 10903XXXXX      
##  6 Albania Angelsharks, sand~ 38               Sharks, rays, c~ 10903XXXXX      
##  7 Albania Angelsharks, sand~ 38               Sharks, rays, c~ 10903XXXXX      
##  8 Albania Angelsharks, sand~ 38               Sharks, rays, c~ 10903XXXXX      
##  9 Albania Angelsharks, sand~ 38               Sharks, rays, c~ 10903XXXXX      
## 10 Albania Angelsharks, sand~ 38               Sharks, rays, c~ 10903XXXXX      
## # ... with 376,761 more rows, and 5 more variables: asfis_species_name <chr>,
## #   fao_major_fishing_area <fct>, measure <chr>, year <dbl>, catch <dbl>
```
7. Which country caught the most sardines (_Sardina pilchardus_) between the years 1990-2000?



```r
fisheries_tidy%>%
  filter(asfis_species_name=="Sardina pilchardus")%>%
  filter(between(year,1990,2000))%>%
  group_by(country)%>%
  summarise(catch_n=sum(catch,rm.na=T))%>%
  arrange(desc(catch_n))
```

```
## # A tibble: 37 x 2
##    country               catch_n
##    <fct>                   <dbl>
##  1 Morocco                  7471
##  2 Spain                    3508
##  3 Russian Federation       1640
##  4 Ukraine                  1031
##  5 Portugal                  819
##  6 Greece                    529
##  7 Italy                     508
##  8 Serbia and Montenegro     479
##  9 Denmark                   478
## 10 Tunisia                   428
## # ... with 27 more rows
```
…
9. Which species had the highest catch total between 2008-2012? (hint: Osteichthyes is not a species)

```r
fisheries_tidy%>%
  filter(between(year,2008,2012))%>%
  group_by(asfis_species_name)%>%
  summarise(catch_t=sum(catch,rm.na=T))%>%
  arrange(desc(catch_t))
```

```
## # A tibble: 1,472 x 2
##    asfis_species_name    catch_t
##    <chr>                   <dbl>
##  1 Theragra chalcogramma   41076
##  2 Engraulis ringens       35524
##  3 Cololabis saira          5734
##  4 Sardinella longiceps     3850
##  5 Sardinops caeruleus      3205
##  6 Brevoortia patronus      3180
##  7 Acetes japonicus         2916
##  8 Squillidae               2885
##  9 Trachurus japonicus      2711
## 10 Ammodytes personatus     2612
## # ... with 1,462 more rows
```

10. Use the data to do at least one analysis of your choice.

```r
fisheries_tidy%>%
  filter(between(year,2001,2013))%>%
  group_by(country)%>%
  summarise(catch_tt=sum(catch,rm.na=T))%>%
  arrange(desc(catch_tt))
```

```
## # A tibble: 200 x 2
##    country                  catch_tt
##    <fct>                       <dbl>
##  1 "Myanmar"                   59371
##  2 "Jordan"                     1890
##  3 "Aruba"                      1886
##  4 "Sudan (former)"             1315
##  5 "TimorLeste"                 1033
##  6 "Montserrat"                  430
##  7 "Saint Barth\xe9lemy"         301
##  8 "Sudan"                       121
##  9 "Bosnia and Herzegovina"       61
## 10 "Pitcairn Islands"             43
## # ... with 190 more rows
```
…
