…
1. (3 points) Once you have an idea of the structure of the data, please make each data set tidy (hint: think back to pivots) and store them as new objects. You will need both the original (wide) and tidy (long) data!  


```r
pop_long<-population%>%
  pivot_longer(-country,
               names_to = "year",
               values_to = "pop")
pop_long
```

```
## # A tibble: 58,695 x 3
##    country     year      pop
##    <chr>       <chr>   <dbl>
##  1 Afghanistan 1800  3280000
##  2 Afghanistan 1801  3280000
##  3 Afghanistan 1802  3280000
##  4 Afghanistan 1803  3280000
##  5 Afghanistan 1804  3280000
##  6 Afghanistan 1805  3280000
##  7 Afghanistan 1806  3280000
##  8 Afghanistan 1807  3280000
##  9 Afghanistan 1808  3280000
## 10 Afghanistan 1809  3280000
## # ... with 58,685 more rows
```


```r
life_long<-life_exp%>%
  pivot_longer(-country,
               names_to = "year",
               values_to = "life_exp")
life_long
```

```
## # A tibble: 56,287 x 3
##    country     year  life_exp
##    <chr>       <chr>    <dbl>
##  1 Afghanistan 1800      28.2
##  2 Afghanistan 1801      28.2
##  3 Afghanistan 1802      28.2
##  4 Afghanistan 1803      28.2
##  5 Afghanistan 1804      28.2
##  6 Afghanistan 1805      28.2
##  7 Afghanistan 1806      28.1
##  8 Afghanistan 1807      28.1
##  9 Afghanistan 1808      28.1
## 10 Afghanistan 1809      28.1
## # ... with 56,277 more rows
```


```r
income_long<-income_gdp%>%
  pivot_longer(-country,
               names_to = "year",
               values_to = "income_gdp")
income_long
```

```
## # A tibble: 46,513 x 3
##    country     year  income_gdp
##    <chr>       <chr>      <dbl>
##  1 Afghanistan 1800         603
##  2 Afghanistan 1801         603
##  3 Afghanistan 1802         603
##  4 Afghanistan 1803         603
##  5 Afghanistan 1804         603
##  6 Afghanistan 1805         603
##  7 Afghanistan 1806         603
##  8 Afghanistan 1807         603
##  9 Afghanistan 1808         603
## 10 Afghanistan 1809         603
## # ... with 46,503 more rows
```
…
3. (2 points) Let's limit the data to 100 years (1920-2020). For these years, which country has the highest average life expectancy? How about the lowest average life expectancy?

#descending order

```r
life_long%>%
  filter(between(year,"1920","2020"))%>%
  group_by(country)%>%
  summarise(mean_life_exp=mean(life_exp))%>%
  arrange(desc(mean_life_exp))
```

```
## # A tibble: 187 x 2
##    country        mean_life_exp
##    <chr>                  <dbl>
##  1 Sweden                  73.5
##  2 Norway                  73.2
##  3 Netherlands             73.0
##  4 Iceland                 72.9
##  5 Australia               72.7
##  6 Switzerland             72.7
##  7 Denmark                 71.9
##  8 Canada                  71.8
##  9 New Zealand             71.4
## 10 United Kingdom          71.1
## # ... with 177 more rows
```
#ascending

```r
life_long%>%
  filter(between(year,"1920","2020"))%>%
  group_by(country)%>%
  summarise(mean_life_exp=mean(life_exp))%>%
  arrange(mean_life_exp)
```

```
## # A tibble: 187 x 2
##    country                  mean_life_exp
##    <chr>                            <dbl>
##  1 Central African Republic          41.8
##  2 Mali                              41.8
##  3 Ethiopia                          42.6
##  4 Sierra Leone                      42.6
##  5 Guinea-Bissau                     42.6
##  6 Burundi                           42.8
##  7 Malawi                            42.8
##  8 Uganda                            43.3
##  9 Eritrea                           43.4
## 10 Yemen                             43.6
## # ... with 177 more rows
```
…
## Income
Theunits used for income are gross domestic product per person adjusted for differences in purchasing power in international dollars.


```r
income_long
```

```
## # A tibble: 46,513 x 3
##    country     year  income_gdp
##    <chr>       <chr>      <dbl>
##  1 Afghanistan 1800         603
##  2 Afghanistan 1801         603
##  3 Afghanistan 1802         603
##  4 Afghanistan 1803         603
##  5 Afghanistan 1804         603
##  6 Afghanistan 1805         603
##  7 Afghanistan 1806         603
##  8 Afghanistan 1807         603
##  9 Afghanistan 1808         603
## 10 Afghanistan 1809         603
## # ... with 46,503 more rows
```
…
```r
income_long%>%
  filter(year=="1920"|year=="2020")%>%
  pivot_wider(names_from = year,
              names_prefix = "yr_",
              values_from = income_gdp)%>%
  group_by(country)%>%
  mutate(gap_income_gdp=yr_2020-yr_1920)%>%
  arrange(desc(gap_income_gdp))
```

```
## # A tibble: 193 x 4
## # Groups:   country [193]
##    country              yr_1920 yr_2020 gap_income_gdp
##    <chr>                  <dbl>   <dbl>          <dbl>
##  1 Qatar                   2300  116000         113700
##  2 Luxembourg              5730   95100          89370
##  3 Singapore               2440   90500          88060
##  4 Brunei                  2130   75100          72970
##  5 Ireland                 5170   74100          68930
##  6 United Arab Emirates    2090   65300          63210
##  7 Kuwait                  2350   64300          61950
##  8 Norway                  8960   67500          58540
##  9 Monaco                  6630   62000          55370
## 10 San Marino              3280   57900          54620
## # ... with 183 more rows
```
…
```r
population_100<-pop_long%>%
  filter(between(year,1920,2020))
```



```r
gapminder_join <- inner_join(life_expectancy_100, population_100, by= c("country", "year"))
gapminder_join <- inner_join(gapminder_join, income_100, by= c("country", "year"))
gapminder_join
```

```
## # A tibble: 18,887 x 5
##    country     year  life_exp      pop income_gdp
##    <chr>       <chr>    <dbl>    <dbl>      <dbl>
##  1 Afghanistan 1920      30.6 10600000       1490
##  2 Afghanistan 1921      30.7 10500000       1520
##  3 Afghanistan 1922      30.8 10300000       1550
##  4 Afghanistan 1923      30.8  9710000       1570
##  5 Afghanistan 1924      30.9  9200000       1600
##  6 Afghanistan 1925      31    8720000       1630
##  7 Afghanistan 1926      31    8260000       1650
##  8 Afghanistan 1927      31.1  7830000       1680
##  9 Afghanistan 1928      31.1  7420000       1710
## 10 Afghanistan 1929      31.2  7100000       1740
## # ... with 18,877 more rows
```
…
