…
```
##   vore  n percent
##  carni  6   33.3%
##  herbi 12   66.7%
```

## Practice
1. Which taxonomic orders have species that belong to more than one class of `vore`?

```r
msleep
```

```
## # A tibble: 83 x 11
##    name   genus vore  order conservation sleep_total sleep_rem sleep_cycle awake
##    <chr>  <chr> <chr> <chr> <chr>              <dbl>     <dbl>       <dbl> <dbl>
##  1 Cheet~ Acin~ carni Carn~ lc                  12.1      NA        NA      11.9
##  2 Owl m~ Aotus omni  Prim~ <NA>                17         1.8      NA       7  
##  3 Mount~ Aplo~ herbi Rode~ nt                  14.4       2.4      NA       9.6
##  4 Great~ Blar~ omni  Sori~ lc                  14.9       2.3       0.133   9.1
##  5 Cow    Bos   herbi Arti~ domesticated         4         0.7       0.667  20  
##  6 Three~ Brad~ herbi Pilo~ <NA>                14.4       2.2       0.767   9.6
##  7 North~ Call~ carni Carn~ vu                   8.7       1.4       0.383  15.3
##  8 Vespe~ Calo~ <NA>  Rode~ <NA>                 7        NA        NA      17  
##  9 Dog    Canis carni Carn~ domesticated        10.1       2.9       0.333  13.9
## 10 Roe d~ Capr~ herbi Arti~ lc                   3        NA        NA      21  
## # ... with 73 more rows, and 2 more variables: brainwt <dbl>, bodywt <dbl>
```


```r
msleep%>%
  select(name,vore,order)%>%
  arrange(order)
```

```
## # A tibble: 83 x 3
##    name              vore  order       
##    <chr>             <chr> <chr>       
##  1 Tenrec            omni  Afrosoricida
##  2 Cow               herbi Artiodactyla
##  3 Roe deer          herbi Artiodactyla
##  4 Goat              herbi Artiodactyla
##  5 Giraffe           herbi Artiodactyla
##  6 Sheep             herbi Artiodactyla
##  7 Pig               omni  Artiodactyla
##  8 Cheetah           carni Carnivora   
##  9 Northern fur seal carni Carnivora   
## 10 Dog               carni Carnivora   
## # ... with 73 more rows
```
…
## Practice
1. Calculate mean brain weight by taxonomic order in the msleep data.

```r
msleep
```

```
## # A tibble: 83 x 11
##    name   genus vore  order conservation sleep_total sleep_rem sleep_cycle awake
##    <chr>  <chr> <chr> <chr> <chr>              <dbl>     <dbl>       <dbl> <dbl>
##  1 Cheet~ Acin~ carni Carn~ lc                  12.1      NA        NA      11.9
##  2 Owl m~ Aotus omni  Prim~ <NA>                17         1.8      NA       7  
##  3 Mount~ Aplo~ herbi Rode~ nt                  14.4       2.4      NA       9.6
##  4 Great~ Blar~ omni  Sori~ lc                  14.9       2.3       0.133   9.1
##  5 Cow    Bos   herbi Arti~ domesticated         4         0.7       0.667  20  
##  6 Three~ Brad~ herbi Pilo~ <NA>                14.4       2.2       0.767   9.6
##  7 North~ Call~ carni Carn~ vu                   8.7       1.4       0.383  15.3
##  8 Vespe~ Calo~ <NA>  Rode~ <NA>                 7        NA        NA      17  
##  9 Dog    Canis carni Carn~ domesticated        10.1       2.9       0.333  13.9
## 10 Roe d~ Capr~ herbi Arti~ lc                   3        NA        NA      21  
## # ... with 73 more rows, and 2 more variables: brainwt <dbl>, bodywt <dbl>
```
…
